^D:\MADHAV\PROJECTS\DBTABLES\DBTABLES\FRMDATAVIEW.RESX|D:\MADHAV\PROJECTS\DBTABLES\DBTABLES\PROPERTIES\RESOURCES.RESX
D:\MADHAV\PROJECTS\DBTABLES\DBTABLES\OBJ\X86\DEBUG\DBTABLES.FRMDATAVIEW.RESOURCES
D:\MADHAV\PROJECTS\DBTABLES\DBTABLES\OBJ\X86\DEBUG\DBTABLES.PROPERTIES.RESOURCES.RESOURCES
