^C:\USERS\DR CLAUDE\DOCUMENTS\VISUAL STUDIO 2010\PROJECTS\DR DAVID SOURCE CODE\ATHENA\DYNAMICS\DYNAMICS\DYNAMICSNAMESEDITOR.RESX
C:\WINDOWS\ASSEMBLY\PUBPOL129.DAT
C:\WINDOWS\MICROSOFT.NET\ASSEMBLY\GAC_MSIL\MICROSOFT.BUILD.TASKS.V4.0\V4.0_4.0.0.0__B03F5F7F11D50A3A\MICROSOFT.BUILD.TASKS.V4.0.DLL
